[
    {
        "bytes": 10914028,
        "bytes_optimised": 1244303,
        "date": "1996",
        "description": "The original Deep Field Image, taken by pointing Hubble at an 'empty' patch of sky and taking a long exposure, astronomers were surprised by just how many galaxies they were able to see.\nThe Hubble Deep Field Image changed our view of cosmology by providing insight into the age, distribution, and formation of galaxies in the observable universe.\nSeveral hundred never before seen galaxies are visible in this 'deepest-ever' view of the universe, called the Hubble Deep Field (HDF), made with the Hubble Space Telescope. Besides the classical spiral and elliptical shaped galaxies, there is a bewildering variety of other galaxy shapes and colours that are important clues to understanding the evolution of the universe. Some of the galaxies may have formed less that one billion years after the Big Bang.",
        "filename": "hs199601c.tif",
        "height": 3069,
        "id": "hs-1996-01-c, opo9601c1",
        "source": "https://esahubble.org/images/opo9601c1/",
        "title": "The Hubble Deep Field",
        "url": "https://esahubble.org/media/archives/images/original/opo9601c1.tif",
        "width": 3100
    },
    {
        "bytes": 26806428,
        "bytes_optimised": 2170791,
        "date": "1998",
        "description": "The deepest visible/ultraviolet light image of the universe ever taken, revealing galaxies down to 30th magnitude. Glaring fiercely across 12 billion light-years of space is the brilliant beacon of a distant quasar (z=2.2). Most of the galaxies in this view lie between us and the quasar.\u00a0 The image was taken with the Wide Field Planetary Camera 2. Light from the galaxies was also analysed with the Space Telescope Imaging Spectrograph (STIS",
        "filename": "opo9841e.tif",
        "height": 3736,
        "id": "opo9841e",
        "source": "https://esahubble.org/images/opo9841e/",
        "title": "Hubble Deep Field South",
        "url": "https://esahubble.org/media/archives/images/original/opo9841e.tif",
        "width": 3736
    },
    {
        "bytes": 115354336,
        "bytes_optimised": 8896430,
        "date": "2004",
        "description": "This view of nearly 10,000 galaxies is called the Hubble Ultra Deep Field. The snapshot includes galaxies of various ages, sizes, shapes, and colours. The smallest, reddest galaxies, about 100, may be among the most distant known, existing when the universe was just 800 million years old. The nearest galaxies - the larger, brighter, well-defined spirals and ellipticals - thrived about 1 billion years ago, when the cosmos was 13 billion years old. The image required 800 exposures taken over the course of 400 Hubble orbits around Earth. The total amount of exposure time was 11.3 days, taken between Sept. 24, 2003 and Jan. 16, 2004.",
        "filename": "heic0611b.tif",
        "height": 6200,
        "id": "heic0611b",
        "source": "https://esahubble.org/images/heic0611b/",
        "title": "Hubble Ultra Deep Field",
        "url": "https://esahubble.org/media/archives/images/original/heic0611b.tif",
        "width": 6200
    },
    {
        "bytes": 38661959,
        "bytes_optimised": 19276720,
        "date": "2006",
        "description": "This dramatic image offers a peek inside a cavern of roiling dust and gas where thousands of stars are forming. The image, taken by the Advanced Camera for Surveys (ACS) aboard NASA/ESA Hubble Space Telescope, represents the sharpest view ever taken of this region, called the Orion Nebula. More than 3,000 stars of various sizes appear in this image. Some of them have never been seen in visible light. These stars reside in a dramatic dust-and-gas landscape of plateaus, mountains, and valleys that are reminiscent of the Grand Canyon.\nThe Orion Nebula is a picture book of star formation, from the massive, young stars that are shaping the nebula to the pillars of dense gas that may be the homes of budding stars. The bright central region is the home of the four heftiest stars in the nebula. The stars are called the Trapezium because they are arranged in a trapezoid pattern. Ultraviolet light unleashed by these stars is carving a cavity in the nebula and disrupting the growth of hundreds of smaller stars. Located near the Trapezium stars are stars still young enough to have disks of material encircling them. These disks are called protoplanetary disks or \"proplyds\" and are too small to see clearly in this image. The disks are the building blocks of solar systems.\nThe bright glow at upper left is from M43, a small region being shaped by a massive, young star's ultraviolet light. Astronomers call the region a miniature Orion Nebula because only one star is sculpting the landscape. The Orion Nebula has four such stars. Next to M43 are dense, dark pillars of dust and gas that point toward the Trapezium. These pillars are resisting erosion from the Trapezium's intense ultraviolet light. The glowing region on the right reveals arcs and bubbles formed when stellar winds - streams of charged particles ejected from the Trapezium stars - collide with material.\nThe faint red stars near the bottom are the myriad brown dwarfs that Hubble spied for the first time in the nebula in visible light. Sometimes called \"failed stars,\" brown dwarfs are cool objects that are too small to be ordinary stars because they cannot sustain nuclear fusion in their cores the way our Sun does. The dark red column, below, left, shows an illuminated edge of the cavity wall.\nThe Orion Nebula is 1,500 light-years away, the nearest star-forming region to Earth. Astronomers used 520 Hubble images, taken in five colours, to make this picture. They also added ground-based photos to fill out the nebula. The ACS mosaic covers approximately the apparent angular size of the full moon.\nThe Orion observations were taken between 2004 and 2005.",
        "filename": "heic0601a.jpg",
        "height": 18000,
        "id": "heic0601a",
        "source": "https://esahubble.org/images/heic0601a/",
        "title": "Hubble's sharpest view of the Orion Nebula",
        "url": "https://cdn.spacetelescope.org/archives/images/large/heic0601a.jpg",
        "width": 18000
    },
    {
        "bytes": 65143580,
        "bytes_optimised": 39196634,
        "date": "2006",
        "description": "This new Hubble image reveals the gigantic Pinwheel galaxy, one of the best known examples of \"grand design spirals\", and its supergiant star-forming regions in unprecedented detail. The image is the largest and most detailed photo of a spiral galaxy ever taken with Hubble.",
        "filename": "heic0602a.jpg",
        "height": 15852,
        "id": "heic0602a",
        "source": "https://esahubble.org/images/heic0602a/",
        "title": "Pinwheel Galaxy - Largest ever galaxy portrait",
        "url": "https://cdn.spacetelescope.org/archives/images/large/heic0602a.jpg",
        "width": 12392
    },
    {
        "bytes": 698763366,
        "bytes_optimised": 48921754,
        "date": "2007",
        "description": "The Extended Groth Strip, named after Princeton University physicist Edward Groth, is a small region in the constellation Ursa Major, based on the results of a series of observations by the Hubble Space Telescope. The Extended Groth Strip is 1.1 degrees long by 0.15 degrees wide (70.5 x 10.1 arcminutes, respectively).",
        "filename": "opo0706c.tif",
        "height": 5600,
        "id": "opo0706c",
        "source": "https://esahubble.org/images/opo0706c/",
        "title": "Extended groth strip",
        "url": "https://esahubble.org/media/archives/images/original/opo0706c.tif",
        "width": 40000
    },
    {
        "bytes": 288851138,
        "bytes_optimised": 31402774,
        "date": "2008",
        "description": "A new discovery has resolved some of the mystery surrounding Omega Centauri, the largest and brightest globular cluster in the sky. Images obtained with the Advanced Camera for Surveys onboard the NASA/ESA Hubble Space Telescope and data obtained by the GMOS spectrograph on the Gemini South telescope in Chile show that Omega Centauri appears to harbour an elusive intermediate-mass black hole in its centre.",
        "filename": "heic0809a.tif",
        "height": 11936,
        "id": "heic0809a",
        "source": "https://esahubble.org/images/heic0809a/",
        "title": "The majestic globular Omega Centauri",
        "url": "https://esahubble.org/media/archives/images/original/heic0809a.tif",
        "width": 10891
    },
    {
        "bytes": 23010540,
        "bytes_optimised": 1534054,
        "date": "2011",
        "description": "This composite image combines the deepest X-ray image ever taken with optical and infrared data from Hubble.  Astronomers obtained what is known as the Chandra Deep Field South by pointing the Chandra telescope at the same patch of sky for over six weeks of time. The Chandra sources of this small section of the CDFS are shown in blue. Two \"stacked\" images, which represent a technique used to find the most distant galaxies in X-ray light, are on the right. The results from this dataset include that black holes are found to be actively growing between 800 million and 950 million years after the Big Bang.",
        "filename": "cdfs_optical.tif",
        "height": 3600,
        "id": "cdfs_optical",
        "source": "https://chandra.harvard.edu/photo/2011/cdfs/",
        "title": "Chandra Deep Field South",
        "url": "https://chandra.harvard.edu/photo/2011/cdfs/cdfs_optical.tif",
        "width": 3216
    },
    {
        "bytes": 13189870,
        "bytes_optimised": 1062136,
        "date": "2012",
        "description": "This image, called the Hubble eXtreme Deep Field (XDF), combines Hubble observations taken over the past decade of a small patch of sky in the constellation of Fornax. With a total of over two million seconds of exposure time, it is the deepest image of the Universe ever made, combining data from previous images including the Hubble Ultra Deep Field (taken in 2002 and 2003) and Hubble Ultra Deep Field Infrared (2009). The image covers an area less than a tenth of the width of the full Moon, making it just a 30 millionth of the whole sky. Yet even in this tiny fraction of the sky, the long exposure reveals about 5500 galaxies, some of them so distant that we see them when the Universe was less than 5% of its current age. The Hubble eXtreme Deep Field image contains several of the most distant objects ever identified.",
        "filename": "heic1214a.tif",
        "height": 2382,
        "id": "heic1214a",
        "source": "https://esahubble.org/images/heic1214a/",
        "title": "Hubble eXtreme Deep Field",
        "url": "https://esahubble.org/media/archives/images/original/heic1214a.tif",
        "width": 2078
    },
    {
        "bytes": 97086704,
        "bytes_optimised": 6038770,
        "date": "2012",
        "description": "This deep view of a tiny patch of sky in the constellation of Cetus (The Sea Monster) shows a rich sea of galaxies at many different distances. A selection of these, seen as they were between three and five billion years after the Big Bang, was used in a new survey of the feeding habits of young galaxies as they grew through cosmic time that was made with ESO\u23e2\u2380\u2399s VLT and the SINFONI instrument.",
        "filename": "eso1212b.tif",
        "height": 6719,
        "id": "eso1212b",
        "source": "https://www.eso.org/public/images/eso1212b/",
        "title": "Teenage galaxies in the distant Universe",
        "url": "https://cdn.eso.org/images/original/eso1212b.tif",
        "width": 6536
    },
    {
        "bytes": 13303028,
        "bytes_optimised": 962966,
        "date": "2014",
        "description": "Astronomers using the Hubble Space Telescope have captured the most comprehensive picture ever assembled of the evolving Universe \u2014 and one of the most colourful. The study is called the Ultraviolet Coverage of the Hubble Ultra Deep Field (UVUDF) project.",
        "filename": "heic1411a.tif",
        "height": 2300,
        "id": "heic1411a",
        "source": "https://esahubble.org/images/heic1411a/",
        "title": "Hubble Ultra Deep Field 2014 (UVUDF)",
        "url": "https://esahubble.org/media/archives/images/original/heic1411a.tif",
        "width": 2100
    },
    {
        "bytes": 34835586,
        "bytes_optimised": 1884387,
        "date": "2014",
        "description": "This image of Abell 2744 is the first to come from Hubble's Frontier Fields observing programme, which is using the magnifying power of enormous galaxy clusters to peer deep into the distant Universe. Abell 2744, nicknamed Pandora's Cluster, is thought to have a very violent history, having formed from a cosmic pile-up of multiple galaxy clusters. Abell 2744 is the first of six targets for an observing programme known as Frontier Fields. This three-year, 840-orbit programme will yield our deepest views of the Universe to date, using the power of Hubble to explore more distant regions of space than could otherwise be seen, by observing gravitational lensing effects around six different galaxy clusters.",
        "filename": "heic1401a.tif",
        "height": 3909,
        "id": "heic1401a",
        "source": "https://esahubble.org/images/heic1401a/",
        "title": "Frontier Fields: Abell 2744",
        "url": "https://esahubble.org/media/archives/images/original/heic1401a.tif",
        "width": 4360
    },
    {
        "bytes": 38268880,
        "bytes_optimised": 2288670,
        "date": "2015",
        "description": "This image from the NASA/ESA Hubble Space Telescope shows the galaxy cluster MACS J0416.1\u20132403. This is one of six being studied by the Hubble Frontier Fields programme, which together have produced the deepest images of gravitational lensing ever made. Due to the huge mass of the cluster it is bending the light of background objects, acting as a magnifying lens. Astronomers used this and two other clusters to find galaxies which existed only 600 to 900 million years after the Big Bang.",
        "filename": "heic1523a.tif",
        "height": 4169,
        "id": "heic1523a",
        "source": "https://esahubble.org/images/heic1523a/",
        "title": "Frontier Fields: MACSJ0416.1\u20132403",
        "url": "https://esahubble.org/media/archives/images/original/heic1523a.tif",
        "width": 4633
    },
    {
        "bytes": 40796698,
        "bytes_optimised": 2971840,
        "date": "2015",
        "description": "This image from the NASA/ESA Hubble Space Telescope shows the galaxy cluster MACSJ0717.5+3745. This is one of six being studied by the Hubble Frontier Fields programme, which together have produced the deepest images of gravitational lensing ever made. Due to the huge mass of the cluster it is bending the light of background objects, acting as a magnifying lens. It is one of the most massive galaxy clusters known, and it is also the largest known gravitational lens. Of all of the galaxy clusters known and measured, MACS J0717 lenses the largest area of the sky.",
        "filename": "heic1523b.tif",
        "height": 4877,
        "id": "heic1523b",
        "source": "https://esahubble.org/images/heic1523b/",
        "title": "Frontier Fields: MACSJ0717.5+3745",
        "url": "https://esahubble.org/media/archives/images/original/heic1523b.tif",
        "width": 4222
    },
    {
        "bytes": 559474264,
        "bytes_optimised": 559474264,
        "date": "2015",
        "description": "This image, captured with the NASA/ESA Hubble Space Telescope, is the largest and sharpest image ever taken of the Andromeda galaxy \u2014 otherwise known as M31.\nThis is a cropped version of the full image and has 1.5 billion pixels. You would need more than 600 HD television screens to display the whole image.\nIt is the biggest Hubble image ever released and shows over 100 million stars and thousands of star clusters embedded in a section of the galaxy\u2019s pancake-shaped disc stretching across over 40 000 light-years.\nThis image is too large to be easily displayed at full resolution and is best appreciated using the zoom tool (or awpgen!)\nNOTE: This version of the image is pre-optimised for awpgen using\njpeg compression with quality 80 to reduce file size while maintaining acceptable quailty for viewing. It is fullsize, but not lossless (that would be a 3.8gb download).",
        "filename": "heic1502a.optimised.jpg80.tiff",
        "height": 22230,
        "id": "heic1502a",
        "source": "https://esahubble.org/images/heic1502a/",
        "title": "Andromeda Gigapixel Image (pre-optimised)",
        "url": "https://web.archive.org/web/20220507060628/https://antisol.org/heic1502a.optimised.jpg80.tiff",
        "width": 69536
    },
    {
        "bytes": 94270908,
        "bytes_optimised": 5828610,
        "date": "2016",
        "description": "Nearly as deep as the Hubble Ultra Deep Field, which contains approximately 10 000 galaxies, this incredible image from the NASA/ESA Space Telescope reveals thousands of colourful galaxies in the constellation of Leo (The Lion). This vibrant view of the early Universe was captured as part of the Frontier Fields campaign, which aims to investigate galaxy clusters in more detail than ever before, and to explore some of the most distant galaxies in the Universe. Galaxy clusters are massive. They can have a tremendous impact on their surroundings, with their immense gravity warping and amplifying the light from more distant objects. This phenomenon, known as gravitational lensing, can help astronomers to see galaxies that would otherwise be too faint, aiding our hunt for residents of the primordial Universe. MACS J1149.5+2223 is a galaxy cluster located approximately five billion light-years away. In 2012, it helped astronomers uncover one of the most distant galaxies ever discovered. Light from the young galaxy, magnified 15 times by the galaxy cluster, first shone when our 13.7-billion-year-old Universe was a mere 500 million years old \u23e2\u2380\u2394 just 3.6 per cent of its current age! In 2014 and 2015, MACS J1149.5+2223 was observed as part of the Frontier Fields campaign. While one of Hubble\u23e2\u2380\u2399s cameras observed the galaxy cluster itself, another simultaneously captured the spectacular scene pictured above, of an \u23e2\u2380\u239cunremarkable\u23e2\u2380\u239d patch of space. Referred to as a parallel field, this image \u23e2\u2380\u2394 when compared to other similar fields \u23e2\u2380\u2394 will help astronomers understand how the Universe looks in different directions.",
        "filename": "potw1621a.tif",
        "height": 6683,
        "id": "potw1621a",
        "source": "https://esahubble.org/images/potw1621a/",
        "title": "Frontier Fields: MACS J1149.5+2223 (A galactic gathering)",
        "url": "https://esahubble.org/media/archives/images/original/potw1621a.tif",
        "width": 6497
    },
    {
        "bytes": 144104956,
        "bytes_optimised": 3323021,
        "date": "2017",
        "description": "With the final observation of the distant galaxy cluster Abell 370 \u23e2\u2380\u2394 some five billion light-years away \u23e2\u2380\u2394 the Frontier Fields program came to an end. Abell 370 is one of the very first galaxy clusters in which astronomers observed the phenomenon of gravitational lensing, the warping of spacetime by the cluster\u23e2\u2380\u2399s gravitational field that distorts the light from galaxies lying far behind it. This manifests as arcs and streaks in the picture, which are the stretched images of background galaxies.",
        "filename": "heic1711a.tif",
        "height": 4164,
        "id": "heic1711a",
        "source": "https://esahubble.org/images/heic1711a/",
        "title": "Frontier Fields: Abell 370",
        "url": "https://esahubble.org/media/archives/images/original/heic1711a.tif",
        "width": 4634
    },
    {
        "bytes": 417434740,
        "bytes_optimised": 9201278,
        "date": "2018",
        "description": "The galaxy cluster Abell 370 was the first target of the BUFFALO survey, which aims to search for some of the first galaxies in the Universe. This remarkable cluster in the constellation of Cetus is located approximately four billion light-years away. Its mass, consisting of both hundreds of galaxies and dark matter, bends and distorts the light coming from even more distant objects behind it. This effect is known as strong gravitational lensing. The most stunning demonstration of gravitational lensing can be seen just below the centre of the image. Nicknamed \u23e2\u2380\u239cthe Dragon\u23e2\u2380\u239d, this extended feature is made up of a multitude of duplicated images of a spiral galaxy in the background of Abell 370 \u23e2\u2380\u2394 all lying five billion light-years away.",
        "filename": "heic1816a.tif",
        "height": 7819,
        "id": "heic1816a",
        "source": "https://esahubble.org/images/heic1816a/",
        "title": "BUFFALO\u2019s view on Abell 370",
        "url": "https://esahubble.org/media/archives/images/original/heic1816a.tif",
        "width": 8897
    },
    {
        "bytes": 563997772,
        "bytes_optimised": 17976578,
        "date": "2018",
        "description": "This image, from the NASA/ESA Hubble Space Telescope\u23e2\u2380\u2399s Advanced Camera for Surveys (ACS), reveals thousands of globular clusters lying at the core of a galaxy cluster. It was created by a Hubble survey that drew on data from three of the telescope\u23e2\u2380\u2399s separate observing programmes to explore the centre of the Coma cluster, a huge gathering of over 1000 galaxies, about 320 million light-years away, all bound together by gravity. Astronomers spotted over 22 000 globular clusters, some of which had formed a bridge connecting a pair of well-known interacting galaxies (NGC 4889 and NGC 4874). A globular cluster is a spherical group of stars that usually orbits a galaxy as a self-contained satellite. However, the globular clusters studied here are of a different type, intracluster globular clusters. Specifically, these are globular clusters that are not bound to an individual galaxy, but to a galaxy cluster \u23e2\u2380\u2394 in this case, Coma. While globular clusters orbiting our Milky Way reveal themselves as sparkling spherical assemblies of densely packed stars, at the distance of the Comla cluster, they only appear as tiny dots of light, even to Hubble's advanced vision. However, a characteristic feature of globular clusters is their colour; since the stars in any given cluster all formed at around the same time and from the same \u23e2\u2380\u239cstuff\u23e2\u2380\u239d, they usually have a consistent colour. In this way, the astronomers were able to identify the clusters \u23e2\u2380\u2394 and rule out background galaxies lying in the same region of sky \u23e2\u2380\u2394 by analysing their colour and size, painting a beautiful family portrait of Coma and its clusters. With the help of the identified globular clusters astronomers can map the distribution of matter and \u23e2\u2380\u2394 even more important \u23e2\u2380\u2394 of dark matter in the Coma cluster. The Coma Cluster was one of the first places where observed gravitational anomalies indicated the existence of dark matter. Links  Science paper STScI press release",
        "filename": "potw1849a.tif",
        "height": 18281,
        "id": "potw1849a",
        "source": "https://esahubble.org/images/potw1849a/",
        "title": "Clusters within clusters",
        "url": "https://esahubble.org/media/archives/images/original/potw1849a.tif",
        "width": 10283
    },
    {
        "bytes": 964905332,
        "bytes_optimised": 58451536,
        "date": "2019",
        "description": "Astronomers developed a mosaic of the distant Universe, called the Hubble Legacy Field, that documents 16 years of observations from the NASA/ESA Hubble Space Telescope. The image contains 200,000 galaxies that stretch back through 13.3 billion years of time to just 500 million years after the Big Bang. The new set of Hubble images, created from nearly 7,500 individual exposures, is the first in a series of Hubble Legacy Field images. The image comprises the collective work of 31 Hubble programs by different teams of astronomers. Hubble has spent more time on this small area than on any other region of the sky, totaling more than 250 days, representing nearly three-quarters of a year. The team is working on a second set of images, totaling more than 5,200 Hubble exposures, in another area of the sky.",
        "filename": "heic1909a.tif",
        "height": 20791,
        "id": "heic1909a",
        "source": "https://esahubble.org/images/heic1909a/",
        "title": "Hubble Legacy Field",
        "url": "https://esahubble.org/media/archives/images/original/heic1909a.tif",
        "width": 19201
    },
    {
        "bytes": 1900150,
        "bytes_optimised": 1849636,
        "date": "2022",
        "description": "NASA\u2019s James Webb Space Telescope has produced the deepest and sharpest infrared image of the distant universe to date. Known as Webb\u2019s First Deep Field, this image of galaxy cluster SMACS 0723 is overflowing with detail.\nThousands of galaxies \u2013 including the faintest objects ever observed in the infrared \u2013 have appeared in Webb\u2019s view for the first time. This slice of the vast universe covers a patch of sky approximately the size of a grain of sand held at arm\u2019s length by someone on the ground.\nThis deep field, taken by Webb\u2019s Near-Infrared Camera (NIRCam), is a composite made from images at different wavelengths, totaling 12.5 hours \u2013 achieving depths at infrared wavelengths beyond the Hubble Space Telescope\u2019s deepest fields, which took weeks.\nThe image shows the galaxy cluster SMACS 0723 as it appeared 4.6 billion years ago. The combined mass of this galaxy cluster acts as a gravitational lens, magnifying much more distant galaxies behind it. Webb\u2019s NIRCam has brought those distant galaxies into sharp focus \u2013 they have tiny, faint structures that have never been seen before, including star clusters and diffuse features. Researchers will soon begin to learn more about the galaxies\u2019 masses, ages, histories, and compositions, as Webb seeks the earliest galaxies in the universe.\nThis image is among the telescope\u2019s first-full color images. The full suite will be released Tuesday, July 12, beginning at 10:30 a.m. EDT, during a live NASA TV broadcast.",
        "filename": "SMACS0723_nircam-FullRez.jpg",
        "height": 4537,
        "id": "",
        "source": "https://www.jwst.nasa.gov/content/webbLaunch/whereIsWebb.html#ssdItemDetailPanelImageWrap",
        "title": "Webb\u2019s First Deep Field",
        "url": "https://www.jwst.nasa.gov/content/webbLaunch/assets/images/firstImages/SMACS0723_nircam-FullRez.jpg",
        "width": 4630
    }
]